"VertexLitGeneric"
{
	"$basetexture"	"models\weapons\w_scattergun\w_scattergun"
	
	"$phong" "1"
	"$phongexponent" "25"
	"$phongboost" "5"
	"$lightwarptexture" "models\lightwarps\weapon_lightwarp"
	"$phongfresnelranges"	"[.25 1.5 20]"
	"$halflambert" "1"

	"$basemapalphaphongmask" "1"


	// Rim lighting parameters
	//"$rimlight" "1"			
	//"$rimlightexponent" "4"	
	//"$rimlightboost" "2"

	// Cloaking
	"$cloakPassEnabled" "1"
	"Proxies"
	{
		"weapon_invis"
		{
		}
	}
}
