#base "default.res"

"classes/Spy_red.res"
{
	"classNameLabel"
	{
		"labelText"		"#TF_Spy"
	}
	
	"classInfo"
	{
		"text"			"#classinfo_spy"
	}
	
	"classModel"
	{
		"fov"			"23"
		
		"model"
		{
			"modelname"	"models/player/spy.mdl"
			"modelname_hwm"	"models/player/hwm/spy.mdl"
			"vcd"		"scenes/Player/Spy/low/class_select.vcd"	

			"animation"
			{
				"sequence"		"Stand_SECONDARY"
			}
								
			"attached_model"
			{
				"modelname" "models/weapons/w_models/w_tranq.mdl"
			}
		}
	}
}