"GameMenu" [$WIN32]
{
	"1"
	{
		"label" "#GameUI_GameMenu_ResumeGame"
		"command" "ResumeGame"
		"OnlyInGame" "1"
	}
	"2"
	{
		"label" "#GameUI_GameMenu_Disconnect"
		"command" "Disconnect"
		"OnlyInGame" "1"
	}
	"3"
	{
		"label" "#GameUI_GameMenu_PlayerList"
		"command" "OpenPlayerListDialog"
		"OnlyInGame" "1"
	} 
	"4"
	{
		"label" "#GameUI_CallVote"
		"command" "engine callvote"
		"OnlyInGame" "1"
	} 
	"5"
	{
		"label" "#GameUI_GameMenu_FindServers" 
		"command" "OpenServerBrowser"
	} 
	"6"
	{
		"label" "#GameUI_GameMenu_CreateServer"
		"command" "OpenCreateMultiplayerGameDialog"
	}
	"7"
	{
		"label" "#GameUI_GameMenu_Achievements"
		"command" "OpenAchievementsDialog"
	}
	"8"
	{
		"label" "#GameUI_GameMenu_PlayerStats"
		"command" "engine showstatsdlg"
	}
	"9"
	{
		"label" "#GameUI_Controller"
		"command" "OpenControllerDialog"
		"ConsoleOnly" "1"
	}
	"10"
	{
		"label" "#GameUI_GameMenu_Options"
		"command" "OpenOptionsDialog"
	}
	"11"
	{
		"label" "#GameUI_GameMenu_Credits"
		"command" "engine OpenCreditsDialog"
	}
	"12"
	{
		"label" "#GameUI_GameMenu_Quit"
		"command" "Quit"
	}
}
