"VertexLitGeneric"
{
	"$basetexture"	"models\weapons\v_scattergun\v_scattergun"
	
	"$phong" "1"
	"$phongexponent" "25"
	"$phongboost" "10"	
	"$lightwarptexture" "models\lightwarps\weapon_lightwarp"
	"$phongfresnelranges"	"[.5 .5 3]"
	"$halflambert" "1"

	"$basemapalphaphongmask" "1"

	// Rim lighting parameters
	//"$rimlight" "1"			
	//"$rimlightexponent" "20"	
	//"$rimlightboost" ".25"

	"360?$color2" "[ 0.5 0.5 0.5 ]"
}
