"Resource/UI/FlagStatus.res"
{	
	"CTFArrowPanel"
	{
		"ControlName"	"CTFArrowPanel"
		"fieldName"		"Arrow"
		"xpos"			"45"
		"ypos"			"5"
		"zpos"			"1"
		"wide"			"80"
		"tall"			"80"
		"visible"		"1"
		"enabled"		"1"
		"scaleImage"	"1"	
	}
		
}	