"Resource/UI/HudAmmoWeapons.res"
{
	"HudWeaponAmmoBG"
	{
		"ControlName"	"CTFImagePanel"
		"fieldName"		"HudWeaponAmmoBG"
		"xpos"			"0"
		"ypos"			"15"
		"zpos"			"1"
		"wide"			"90"
		"tall"			"45"
		"visible"		"1"
		"enabled"		"1"
		"image"			"../hud/ammo_blue_bg"
		"scaleImage"	"1"	
		"teambg_2"		"../hud/ammo_red_bg"
		"teambg_2_lodef"	"../hud/ammo_red_bg_lodef"
		"teambg_3"		"../hud/ammo_blue_bg"
		"teambg_3_lodef"	"../hud/ammo_blue_bg_lodef"			
	}
	"HudWeaponGrenadesBG"
	{
		"ControlName"	"CTFImagePanel"
		"fieldName"		"HudWeaponGrenadeBG"
		"xpos"			"45"
		"ypos"			"0"
		"zpos"			"1"
		"wide"			"45"
		"tall"			"45"
		"visible"		"1"
		"enabled"		"1"
		"image"			"../hud/grenade_blue_bg"
		"scaleImage"	"1"	
		"teambg_2"		"../hud/grenade_red_bg"
		"teambg_2_lodef"	"../hud/grenade_red_bg_lodef"
		"teambg_3"		"../hud/grenade_blue_bg"
		"teambg_3_lodef"	"../hud/grenade_blue_bg_lodef"			
	}
	"AmmoInClip"
	{
		"ControlName"	"CTFLabel"
		"fieldName"		"AmmoInClip"
		"font"			"CloseCaption_Normal"
		"fgcolor"		"White"
		"xpos"			"10"
		"ypos"			"17"
		"zpos"			"5"
		"wide"			"55"
		"tall"			"40"
		"tall_lodef"	"45"
		"visible"		"0"
		"enabled"		"1"
		"textAlignment"	"center"
		"labelText"		"%Ammo%"
		
	}		
	"AmmoInClipShadow"
	{
		"ControlName"	"CTFLabel"
		"fieldName"		"AmmoInClipShadow"
		"font"			"CloseCaption_Normal"
		"fgcolor"		"Blank"
		"xpos"			"10"
		"ypos"			"15"
		"zpos"			"5"
		"wide"			"55"
		"tall"			"40"
		"tall_lodef"	"45"
		"visible"		"0"
		"enabled"		"1"
		"textAlignment"	"center"
		"labelText"		"%Ammo%"
		
	}						
	"AmmoInReserve"
	{
		"ControlName"	"CTFLabel"
		"fieldName"		"AmmoInReserve"
		"font"			"CloseCaption_Small"
		"font_lodef"	"HudFontMedium"
		"fgcolor"		"White"
		"xpos"			"40"
		"ypos"			"26"
		"ypos_lodef"	"25"
		"zpos"			"7"
		"wide"			"40"
		"tall"			"27"
		"tall_lodef"	"30"
		"visible"		"0"
		"enabled"		"1"
		"textAlignment"	"center"
		"labelText"		"%AmmoInReserve%"
	}		
	"AmmoInReserveShadow"
	{
		"ControlName"	"CTFLabel"
		"fieldName"		"AmmoInReserveShadow"
		"font"			"CloseCaption_Small"
		"font_lodef"	"HudFontMedium"
		"fgcolor"		"Blank"
		"xpos"			"40"
		"ypos"			"25"
		"ypos_lodef"	"26"
		"zpos"			"7"
		"wide"			"40"
		"tall"			"27"
		"tall_lodef"	"30"
		"visible"		"0"
		"enabled"		"1"
		"textAlignment"	"center"
		"labelText"		"%AmmoInReserve%"
	}									
	"AmmoNoClip"
	{
		"ControlName"	"CTFLabel"
		"fieldName"		"AmmoNoClip"
		"font"			"CloseCaption_Normal"
		"fgcolor"		"White"
		"xpos"			"5"
		"ypos"			"17"
		"zpos"			"5"
		"wide"			"79"
		"wide_lodef"	"83"
		"tall"			"40"
		"tall_lodef"	"45"
		"visible"		"0"
		"enabled"		"1"
		"textAlignment"	"center"
		"labelText"		"%Ammo%"
	}	
	"AmmoNoClipShadow"
	{
		"ControlName"	"CTFLabel"
		"fieldName"		"AmmoNoClipShadow"
		"font"			"CloseCaption_Normal"
		"fgcolor"		"Blank"
		"xpos"			"1"
		"xpos_hidef"	"2"
		"xpos_lodef"	"2"
		"ypos"			"18"
		"ypos_hidef"	"19"
		"ypos_lodef"	"19"
		"ypos_lodef"	"19"
		"zpos"			"5"
		"wide"			"79"
		"wide_lodef"	"83"
		"tall"			"40"
		"tall_lodef"	"45"
		"visible"		"0"
		"enabled"		"1"
		"textAlignment"	"center"
		"labelText"		"%Ammo%"
	}

	"SeparatingGrenades"
	{
		"ControlName"	"CTFLabel"
		"fieldName"		"SeparatingGrenades"
		"font"			"CloseCaption_Small"
		"font_lodef"	"CloseCaption_Small"
		"fgcolor"		"White"
		"xpos"			"48"
		"ypos"			"-3"
		"zpos"			"0"
		"wide"			"40"
		"tall"			"27"
		"tall_lodef"	"30"
		"visible"		"1"
		"enabled"		"1"
		"textAlignment"	"center"	
		"labelText"		"|"
	}

	"AmmoGrenades1"
	{
		"ControlName"	"CTFLabel"
		"fieldName"		"AmmoGrenades1"
		"font"			"CloseCaption_Small"
		"font_lodef"	"HudFontMedium"
		"fgcolor"		"White"
		"xpos"			"40"
		"ypos"			"-2"
		"zpos"			"7"
		"wide"			"40"
		"tall"			"27"
		"tall_lodef"	"30"
		"visible"		"0"
		"enabled"		"1"
		"textAlignment"	"center"	
		"labelText"		"%Grenades1%"
	}
	"AmmoGrenades1Shadow"
	{
		"ControlName"	"CTFLabel"
		"fieldName"		"AmmoGrenades1Shadow"
		"font"			"CloseCaption_Small"
		"font_lodef"	"HudFontMedium"
		"fgcolor"		"Blank"
		"xpos"			"41"
		"ypos"			"0"
		"zpos"			"7"
		"wide"			"40"
		"tall"			"27"
		"tall_lodef"	"30"
		"visible"		"0"
		"enabled"		"1"
		"textAlignment"	"center"	
		"labelText"		"%Grenades1%"
	}
	"AmmoGrenades2"
	{
		"ControlName"	"CTFLabel"
		"fieldName"		"AmmoGrenades2"
		"font"			"CloseCaption_Small"
		"font_lodef"	"HudFontMedium"
		"fgcolor"		"White"
		"xpos"			"55"
		"ypos"			"-2"
		"zpos"			"7"
		"wide"			"40"
		"tall"			"27"
		"tall_lodef"	"30"
		"visible"		"0"
		"enabled"		"1"
		"textAlignment"	"center"	
		"labelText"		"%Grenades2%"
	}


	"AmmoGrenades2Shadow"
	{
		"ControlName"	"CTFLabel"
		"fieldName"		"AmmoGrenades2Shadow"
		"font"			"CloseCaption_Small"
		"font_lodef"	"HudFontMedium"
		"fgcolor"		"Blank"
		"xpos"			"56"
		"ypos"			"0"
		"zpos"			"7"
		"wide"			"40"
		"tall"			"27"
		"tall_lodef"	"30"
		"visible"		"0"
		"enabled"		"1"
		"textAlignment"	"center"	
		"labelText"		"%Grenades2%"
	}
}
