"Resource/UI/HudDemomanPipes.res"
{
	"background"
	{
		"ControlName"	"CTFImagePanel"
		"fieldName"		"background"
		"xpos"			"12"
		"ypos"			"6"
		"zpos"			"0"
		"wide"			"76"
		"tall"			"38"
		"visible"		"1"
		"enabled"		"1"
		"image"			"../hud/misc_ammo_area_blue"
		"scaleImage"	"1"	
		"teambg_2"		"../hud/misc_ammo_area_red"
		"teambg_2_lodef"	"../hud/misc_ammo_area_red_lodef"
		"teambg_3"		"../hud/misc_ammo_area_blue"
		"teambg_3_lodef"	"../hud/misc_ammo_area_blue_lodef"				
	}
	"PipeIcon"
	{
		"ControlName"	"CTFImagePanel"
		"fieldName"		"PipeIcon"
		"xpos"			"26"
		"ypos"			"16"
		"wide"			"20"
		"tall"			"20"
		"visible"		"1"
		"enabled"		"1"
		"image"			"../hud/ico_stickybomb_red"
		"scaleImage"	"1"
		"teambg_2"		"../hud/ico_stickybomb_red"
		"teambg_3"		"../hud/ico_stickybomb_blue"	
	}
	
	"PipesPresentPanel"
	{
		"ControlName"	"EditablePanel"
		"fieldName"		"PipesPresentPanel"
		"xpos"			"15"
		"ypos"			"2"
		"zpos"			"1"
		"wide"			"100"
		"tall"			"50"
		"visible"		"1"
		
	
		
		"NumPipesLabel"
		{
			"ControlName"	"CTFLabel"
			"fieldName"		"NumPipesLabel"
			"fgcolor"		"white"
			"xpos"			"25"
			"ypos"			"13"
			"zpos"			"0"
			"wide"			"35"
			"tall"			"20"
			"tall_lodef"	"28"
			"autoResize"	"1"
			"pinCorner"		"2"
			"visible"		"1"
			"enabled"		"1"
			"tabPosition"	"0"
			"labelText"		"%activepipes%"
			"textAlignment"	"center"
			"dulltext"		"0"
			"brighttext"	"0"
			"font"			"CloseCaption_Normal"
			"font_lodef"	"HudFontMediumBig"
		}
		"NumPipesLabelDropshadow"
		{
			"ControlName"	"CTFLabel"
			"fieldName"		"NumPipesLabelDropshadow"
			"xpos"			"51"
			"ypos"			"19"
			"zpos"			"2"
			"wide"			"35"
			"tall"			"20"
			"tall_lodef"	"28"
			"autoResize"	"1"
			"pinCorner"		"2"
			"visible"		"1"
			"enabled"		"1"
			"tabPosition"	"0"
			"labelText"		"%activepipes%"
			"textAlignment"	"west"
			"dulltext"		"0"
			"brighttext"	"0"
			"font"			"CloseCaption_Normal"
			"font_lodef"	"HudFontMediumBig"
			"fgcolor"		"blank"
		}		
	}
	
	"NoPipesPresentPanel"
	{
		"ControlName"	"EditablePanel"
		"fieldName"		"NoPipesPresentPanel"
		"xpos"			"15"
		"ypos"			"2"
		"zpos"			"1"
		"wide"			"100"
		"tall"			"50"
		"visible"		"1"
		
		"PipeIcon"
		{
			"ControlName"	"CTFImagePanel"
			"fieldName"		"PipeIcon"
			"xpos"			"26"
			"ypos"			"16"
			"wide"			"20"
			"tall"			"20"
			"visible"		"0"
			"enabled"		"0"
			"image"			"../hud/ico_stickybomb_red_faded"
			"scaleImage"	"1"
			"teambg_2"		"../hud/ico_stickybomb_red_faded"
			"teambg_3"		"../hud/ico_stickybomb_blue_faded"	
		}

		"NumPipesLabel"
		{
			"ControlName"	"CTFLabel"
			"fieldName"		"NumPipesLabel"
			"fgcolor"		"white"
			"xpos"			"25"
			"ypos"			"13"
			"zpos"			"0"
			"wide"			"35"
			"tall"			"20"
			"tall_lodef"	"28"
			"autoResize"	"1"
			"pinCorner"		"2"
			"visible"		"1"
			"enabled"		"1"
			"tabPosition"	"0"
			"labelText"		"%activepipes%"
			"textAlignment"	"center"
			"dulltext"		"1"
			"brighttext"	"0"
			"font"			"CloseCaption_Normal"
			"font_lodef"	"HudFontMediumBig"
		}
		"NumPipesLabelDropshadow"
		{
			"ControlName"	"CTFLabel"
			"fieldName"		"NumPipesLabelDropshadow"
			"xpos"			"51"
			"ypos"			"19"
			"zpos"			"2"
			"wide"			"35"
			"tall"			"20"
			"tall_lodef"	"28"
			"autoResize"	"1"
			"pinCorner"		"2"
			"visible"		"1"
			"enabled"		"1"
			"tabPosition"	"0"
			"labelText"		"%activepipes%"
			"textAlignment"	"west"
			"dulltext"		"1"
			"brighttext"	"0"
			"font"			"HudFontMedium"
			"font_lodef"	"HudFontMediumBig"
			"fgcolor"		"blank"
		}			
	}				
}
