"Resource/UI/HudPlayerHealth.res"
{	
	// player health data
	"HudPlayerHealth"
	{
		"ControlName"	"EditablePanel"
		"fieldName"		"HudPlayerHealth"
		"xpos"			"0"		[$WIN32]
		"ypos"			"r120"	[$WIN32]
		"xpos"			"32"	[$X360]
		"ypos"			"r144"	[$X360]
		"zpos"			"2"
		"wide"			"250"
		"tall"			"120"
		"visible"		"1"
		"enabled"		"1"	
		"HealthBonusPosAdj"	"35"
		"HealthDeathWarning"	"0.49"
		"HealthDeathWarningColor"	"HUDDeathWarning"
	}	
	"PlayerStatusHealthImage"
	{
		"ControlName"	"ImagePanel"
		"fieldName"		"PlayerStatusHealthImage"
		"xpos"			"75"
		"ypos"			"35"
		"zpos"			"4"
		"wide"			"51"
		"tall"			"51"
		"visible"		"1"
		"enabled"		"1"
		"scaleImage"	"1"	
	}		
	"PlayerStatusHealthImageBG"
	{
		"ControlName"	"ImagePanel"
		"fieldName"		"PlayerStatusHealthImageBG"
		"xpos"			"73"
		"ypos"			"33"
		"zpos"			"3"
		"wide"			"55"
		"tall"			"55"
		"visible"		"1"
		"enabled"		"1"
		"image"			"../hud/health_bg"
		"scaleImage"	"1"	
	}	
	"PlayerStatusHealthBonusImage"
	{
		"ControlName"	"ImagePanel"
		"fieldName"		"PlayerStatusHealthBonusImage"
		"xpos"			"73"	[$WIN32]
		"xpos"			"83"	[$X360]
		"ypos"			"33"	[$WIN32]
		"ypos"			"43"	[$X360]
		"zpos"			"2"
		"wide"			"55"	[$WIN32]
		"wide"			"35"	[$X360]
		"tall"			"55"	[$WIN32]
		"tall"			"35"	[$X360]
		"visible"		"0"
		"enabled"		"1"
		"image"			"../hud/health_over_bg"
		"scaleImage"	"1"	
	}
	"PlayerStatusHealthValue"
	{
		"ControlName"	"CTFLabel"
		"fieldName"		"PlayerStatusHealthValue"
		"xpos"			"76"
		"ypos"			"51"	[$WIN32]
		"ypos"			"55"	[$X360]
		"zpos"			"5"
		"wide"			"50"
		"tall"			"18"
		"visible"		"1"
		"enabled"		"1"
		"labelText"		"%Health%"
		"textAlignment"	"center"	
		"font"			"CloseCaption_Normal"
		"fgcolor"		"White"
	}								
}
